Statistical analysis of Covid-19 deaths
…
## Warning: 1 parsing failure.
##  row   col expected actual                             file
## 7979 istat a double  Total 'italy cordinates/italy_geo.csv'

names(italycoordinates)[names(italycoordinates) == "comune"] <- "NOME_COMUNE"
italycoordinates

## # A tibble: 7,979 x 4
##    istat NOME_COMUNE       lng   lat
##    <dbl> <chr>           <dbl> <dbl>
##  1  1001 Agli            7.77  45.4
##  2  1002 Airasca          7.48  44.9
##  3  1003 Ala di Stura     7.30  45.3
##  4  1004 Albiano d'Ivrea  7.95  45.4
##  5  1005 Alice Superiore  7.78  45.5
##  6  1006 Almese           7.40  45.1
##  7  1007 Alpette          7.58  45.4
##  8  1008 Alpignano        7.52  45.1
##  9  1009 Andezeno         7.87  45.0
## 10  1010 Andrate          7.87  45.5
## #  with 7,969 more rows
…
